<svg width="18" height="13" viewBox="0 0 18 13" fill="none" xmlns="http://www.w3.org/2000/svg">
<path d="M0.0625 0.25V12.625H17.9375V0.25H0.0625ZM3.02734 1.625H14.9727L9 5.59961L3.02734 1.625ZM1.4375 2.22656L8.61328 7.01758L9 7.25391L9.38672 7.01758L16.5625 2.22656V11.25H1.4375V2.22656Z" fill="#CCCFD7"/>
</svg>
