<svg width="18" height="18" viewBox="0 0 18 18" fill="none" xmlns="http://www.w3.org/2000/svg">
<path d="M9 0.75C4.44263 0.75 0.75 4.44263 0.75 9C0.75 13.5574 4.44263 17.25 9 17.25C13.5574 17.25 17.25 13.5574 17.25 9C17.25 4.44263 13.5574 0.75 9 0.75ZM9 2.125C12.8188 2.125 15.875 5.18115 15.875 9C15.875 12.8188 12.8188 15.875 9 15.875C5.18115 15.875 2.125 12.8188 2.125 9C2.125 5.18115 5.18115 2.125 9 2.125ZM7.9043 5.39062C6.5669 5.39062 5.40137 5.51416 4.29492 5.86328C4.0022 5.92236 3.75781 6.14258 3.75781 6.55078C3.75781 6.95898 4.05859 7.31885 4.4668 7.25977C4.64136 7.25977 4.75952 7.19531 4.875 7.19531C5.80688 6.96167 6.85693 6.85156 7.9043 6.85156C9.93994 6.85156 12.0293 7.30542 13.4258 8.11914C13.6003 8.17822 13.6594 8.24805 13.834 8.24805C14.2422 8.24805 14.5269 7.94727 14.5859 7.53906C14.5859 7.18994 14.4114 6.96704 14.1777 6.85156C12.4321 5.86328 10.1145 5.39062 7.9043 5.39062ZM7.71094 7.94727C6.48901 7.94727 5.6189 8.12183 4.74609 8.35547C4.45605 8.47095 4.29492 8.65088 4.29492 9C4.29492 9.29004 4.52588 9.58008 4.875 9.58008C4.99316 9.58008 5.04419 9.57471 5.21875 9.51562C5.85791 9.34106 6.73608 9.23633 7.66797 9.23633C9.58813 9.23633 11.2585 9.70361 12.4805 10.4609C12.5959 10.52 12.7141 10.5684 12.8887 10.5684C13.2378 10.5684 13.4688 10.2729 13.4688 9.92383C13.4688 9.69019 13.3586 9.45923 13.125 9.34375C11.613 8.41187 9.69019 7.94727 7.71094 7.94727ZM7.9043 10.4609C6.91602 10.4609 5.97876 10.571 5.04688 10.8047C4.81323 10.8638 4.63867 11.0303 4.63867 11.3203C4.63867 11.554 4.82129 11.793 5.11133 11.793C5.17041 11.793 5.3396 11.7285 5.45508 11.7285C6.2124 11.554 7.02612 11.4492 7.83984 11.4492C9.29272 11.4492 10.6221 11.7983 11.7285 12.4375C11.8467 12.4966 11.9783 12.5449 12.0938 12.5449C12.3274 12.5449 12.5503 12.3704 12.6094 12.1367C12.6094 11.844 12.4832 11.7366 12.3086 11.6211C11.0276 10.8638 9.53174 10.4609 7.9043 10.4609Z" fill="#CCCFD7"/>
</svg>
