<svg width="18" height="14" viewBox="0 0 18 14" fill="none" xmlns="http://www.w3.org/2000/svg">
<path d="M17.25 1.63672C16.6341 1.90885 15.9896 2.08789 15.3164 2.17383C15.6602 1.95898 15.9609 1.69401 16.2188 1.37891C16.4766 1.04948 16.6699 0.684245 16.7988 0.283203C16.1257 0.684245 15.4095 0.963542 14.6504 1.12109C14.3353 0.777344 13.9629 0.51237 13.5332 0.326172C13.1035 0.139974 12.6523 0.046875 12.1797 0.046875C11.5638 0.046875 10.998 0.197266 10.4824 0.498047C9.9668 0.798828 9.55143 1.21419 9.23633 1.74414C8.93555 2.25977 8.78516 2.81836 8.78516 3.41992C8.78516 3.69206 8.8138 3.94987 8.87109 4.19336C7.49609 4.13607 6.19271 3.78516 4.96094 3.14062C3.77214 2.53906 2.74805 1.71549 1.88867 0.669922C1.58789 1.18555 1.4375 1.7513 1.4375 2.36719C1.4375 2.9401 1.57357 3.47721 1.8457 3.97852C2.11784 4.47982 2.48307 4.88086 2.94141 5.18164C2.39714 5.16732 1.88867 5.02409 1.41602 4.75195V4.79492C1.41602 5.61133 1.67383 6.33464 2.18945 6.96484C2.70508 7.58073 3.34961 7.96745 4.12305 8.125C3.83659 8.19661 3.54297 8.23242 3.24219 8.23242C3.02734 8.23242 2.8125 8.2181 2.59766 8.18945C2.8125 8.86263 3.20638 9.42122 3.7793 9.86523C4.36654 10.2949 5.02539 10.5169 5.75586 10.5312C5.16862 10.9896 4.51693 11.3477 3.80078 11.6055C3.08464 11.8633 2.33984 11.9922 1.56641 11.9922C1.29427 11.9779 1.02214 11.9564 0.75 11.9277C1.50911 12.4147 2.32552 12.7871 3.19922 13.0449C4.08724 13.3171 4.99674 13.4531 5.92773 13.4531C7.43164 13.4531 8.8138 13.1595 10.0742 12.5723C11.2201 12.0423 12.2227 11.2904 13.082 10.3164C13.8841 9.41406 14.5072 8.38281 14.9512 7.22266C15.3665 6.09115 15.5742 4.95964 15.5742 3.82812L15.5527 3.37695C16.2259 2.9043 16.7917 2.32422 17.25 1.63672Z" fill="#2A437A"/>
</svg>
