<svg width="18" height="19" viewBox="0 0 18 19" fill="none" xmlns="http://www.w3.org/2000/svg">
<path d="M3.95117 0.8125C3.57878 0.8125 3.24219 0.934245 2.94141 1.17773L2.89844 1.19922L0.728516 3.43359L0.75 3.45508C0.420573 3.75586 0.205729 4.12109 0.105469 4.55078C0.00520833 4.96615 0.0266927 5.37435 0.169922 5.77539V5.79688C0.556641 6.91406 1.09375 8.0599 1.78125 9.23438C2.74089 10.8529 3.86523 12.3066 5.1543 13.5957C7.27409 15.7155 9.8737 17.377 12.9531 18.5801H12.9746C13.39 18.7233 13.8053 18.752 14.2207 18.666C14.6504 18.5801 15.0299 18.3939 15.3594 18.1074L17.5293 15.9375C17.8158 15.651 17.959 15.3001 17.959 14.8848C17.959 14.4551 17.8158 14.097 17.5293 13.8105L14.7363 11.0176L14.7148 10.9746C14.4284 10.6882 14.0703 10.5449 13.6406 10.5449C13.2109 10.5449 12.8529 10.6882 12.5664 10.9746L11.1914 12.3496C10.1315 11.834 9.19336 11.1895 8.37695 10.416C7.58919 9.67122 6.95182 8.74023 6.46484 7.62305L7.83984 6.24805C8.1263 5.96159 8.26953 5.61068 8.26953 5.19531C8.26953 4.77995 8.11914 4.42904 7.81836 4.14258L7.83984 4.12109L5.02539 1.2207L4.96094 1.17773C4.66016 0.934245 4.32357 0.8125 3.95117 0.8125ZM3.95117 2.1875C3.99414 2.1875 4.04427 2.20898 4.10156 2.25195L6.91602 5.13086C6.93034 5.18815 6.91602 5.23828 6.87305 5.28125L5.1543 7L4.83203 7.30078L4.98242 7.73047L5.24023 8.33203C5.48372 8.83333 5.75586 9.31315 6.05664 9.77148C6.48633 10.4017 6.94466 10.9531 7.43164 11.4258L7.58203 11.5547C8.05469 11.9844 8.5918 12.3926 9.19336 12.7793C9.62305 13.0658 10.0671 13.3236 10.5254 13.5527L11.4922 14.0039L13.5547 11.9414C13.5977 11.8984 13.6263 11.877 13.6406 11.877C13.6549 11.877 13.6836 11.8984 13.7266 11.9414L16.6055 14.8203C16.6341 14.849 16.6484 14.8704 16.6484 14.8848C16.6484 14.8848 16.6341 14.8991 16.6055 14.9277L14.457 17.0762C14.1562 17.334 13.8053 17.3984 13.4043 17.2695C10.4967 16.1237 8.06901 14.5768 6.12109 12.6289C4.91797 11.4258 3.86523 10.0579 2.96289 8.52539C2.31836 7.4082 1.81706 6.34115 1.45898 5.32422C1.40169 5.18099 1.39453 5.02344 1.4375 4.85156C1.48047 4.66536 1.55924 4.52214 1.67383 4.42188L3.80078 2.25195C3.85807 2.20898 3.9082 2.1875 3.95117 2.1875Z" fill="#CCCFD7"/>
</svg>
