<svg width="20" height="26" viewBox="0 0 20 26" fill="none" xmlns="http://www.w3.org/2000/svg">
<path d="M0 0V26H20V0H0ZM2 2H18V24H2V2ZM9.40625 7.34375C9.05208 7.34375 8.75 7.44792 8.5 7.65625C8.29167 7.82292 8.14583 8.07292 8.0625 8.40625C7.9375 8.88542 7.94792 9.45833 8.09375 10.125C8.17708 10.5 8.40625 11.1146 8.78125 11.9688L9.03125 12.5625C8.98958 12.75 8.9375 13.0208 8.875 13.375C8.77083 13.9792 8.65625 14.4479 8.53125 14.7812C8.42708 15.0521 8.26042 15.3958 8.03125 15.8125C7.88542 16.0833 7.78125 16.2917 7.71875 16.4375C7.57292 16.5 7.34375 16.5729 7.03125 16.6562C6.44792 16.8438 6.05208 17 5.84375 17.125C5.21875 17.5208 4.79167 17.9271 4.5625 18.3438C4.41667 18.6146 4.35417 18.9167 4.375 19.25C4.39583 19.5833 4.5 19.8854 4.6875 20.1562C4.875 20.4271 5.125 20.625 5.4375 20.75C5.77083 20.875 6.09375 20.8854 6.40625 20.7812C6.86458 20.6146 7.33333 20.2188 7.8125 19.5938C7.97917 19.3854 8.1875 18.9792 8.4375 18.375C8.58333 18.0208 8.69792 17.7604 8.78125 17.5938L9.3125 17.375C9.66667 17.2292 9.95833 17.1354 10.1875 17.0938C10.4167 17.0521 10.7188 17.0208 11.0938 17C11.3229 17 11.5104 16.9896 11.6562 16.9688C11.7188 17.0521 11.8125 17.1771 11.9375 17.3438C12.1042 17.5938 12.2292 17.7604 12.3125 17.8438C12.875 18.3229 13.4167 18.5833 13.9375 18.625C14.25 18.6458 14.5521 18.5729 14.8438 18.4062C15.1354 18.2188 15.3646 17.9792 15.5312 17.6875H15.5625V17.6562C15.7292 17.3438 15.8125 17.0521 15.8125 16.7812C15.8125 16.4479 15.6875 16.1562 15.4375 15.9062C15.25 15.6979 15.0208 15.5521 14.75 15.4688C14.5417 15.3854 14.2708 15.3229 13.9375 15.2812C13.75 15.2604 13.4375 15.2812 13 15.3438C12.7083 15.3854 12.5 15.4062 12.375 15.4062L12 14.9375C11.5625 14.4167 11.25 13.9688 11.0625 13.5938C10.9792 13.4271 10.8854 13.1979 10.7812 12.9062C10.7188 12.6979 10.6562 12.5312 10.5938 12.4062C10.6354 12.2396 10.6979 11.9792 10.7812 11.625C10.9479 11.0417 11.0417 10.625 11.0625 10.375C11.1042 9.58333 11.0417 8.94792 10.875 8.46875C10.75 8.13542 10.5625 7.86458 10.3125 7.65625C10.0625 7.44792 9.77083 7.34375 9.4375 7.34375H9.40625ZM10.0625 14.75C10.125 14.875 10.2292 15.0312 10.375 15.2188C10.5 15.3646 10.5938 15.4792 10.6562 15.5625C10.5729 15.5833 10.4479 15.5938 10.2812 15.5938C10.1146 15.5938 9.97917 15.6042 9.875 15.625L9.75 15.6875L9.9375 15.2812C9.95833 15.2188 9.97917 15.125 10 15L10.0625 14.75ZM13.75 16.7812C13.9583 16.8021 14.125 16.8438 14.25 16.9062V16.9375C14.1875 17.0208 14.1458 17.0729 14.125 17.0938C14.1042 17.1146 14.0729 17.125 14.0312 17.125C13.9479 17.125 13.7604 17.0208 13.4688 16.8125L13.75 16.7812ZM6.75 18.3438C6.72917 18.3646 6.69792 18.4271 6.65625 18.5312C6.63542 18.6146 6.61458 18.6667 6.59375 18.6875C6.34375 19.0208 6.125 19.2292 5.9375 19.3125C5.9375 19.3125 5.9375 19.3021 5.9375 19.2812H5.90625L5.84375 19.1875L5.90625 19.0625C6.03125 18.8542 6.27083 18.6354 6.625 18.4062L6.75 18.3438Z" fill="white"/>
</svg>
