<svg width="18" height="18" viewBox="0 0 18 18" fill="none" xmlns="http://www.w3.org/2000/svg">
<path d="M14.8438 2.90625C14.0703 2.13281 13.1823 1.53841 12.1797 1.12305C11.1771 0.707682 10.1315 0.5 9.04297 0.5C7.55339 0.5 6.17122 0.872396 4.89648 1.61719C3.65039 2.34766 2.66927 3.32878 1.95312 4.56055C1.19401 5.84961 0.814453 7.23177 0.814453 8.70703C0.814453 10.1823 1.17969 11.5501 1.91016 12.8105L0.75 17.0645L5.11133 15.9258C6.32878 16.599 7.63216 16.9355 9.02148 16.9355H9.04297C10.5182 16.9355 11.8932 16.5632 13.168 15.8184C14.4141 15.0879 15.4023 14.0996 16.1328 12.8535C16.8776 11.5788 17.25 10.2038 17.25 8.72852C17.25 7.62565 17.0423 6.57292 16.627 5.57031C16.2116 4.56771 15.6172 3.67969 14.8438 2.90625ZM9.04297 15.5391C7.78255 15.5391 6.6224 15.224 5.5625 14.5938L5.30469 14.4434L2.72656 15.1309L3.41406 12.5957L3.24219 12.3379C2.55469 11.235 2.21094 10.0247 2.21094 8.70703C2.21094 7.47526 2.51888 6.32943 3.13477 5.26953C3.73633 4.23828 4.55273 3.42188 5.58398 2.82031C6.6582 2.20443 7.8112 1.89648 9.04297 1.89648C9.94531 1.89648 10.8118 2.06836 11.6426 2.41211C12.4733 2.75586 13.2109 3.25 13.8555 3.89453C14.5 4.53906 14.9941 5.27669 15.3379 6.10742C15.6816 6.93815 15.8535 7.80469 15.8535 8.70703C15.8535 9.95312 15.5456 11.1061 14.9297 12.166C14.3281 13.1973 13.5117 14.0137 12.4805 14.6152C11.4206 15.2311 10.2747 15.5391 9.04297 15.5391ZM12.7812 10.4258C12.0078 10.0391 11.5423 9.81706 11.3848 9.75977C11.2702 9.7168 11.1771 9.70247 11.1055 9.7168C11.0339 9.7168 10.9694 9.76693 10.9121 9.86719C10.7975 10.0534 10.5827 10.3184 10.2676 10.6621C10.2103 10.7337 10.1458 10.7767 10.0742 10.791C10.0026 10.791 9.91667 10.7695 9.81641 10.7266L9.6875 10.6621C9.11458 10.4186 8.60612 10.1035 8.16211 9.7168C7.73242 9.31576 7.35286 8.83594 7.02344 8.27734C6.98047 8.19141 6.96615 8.11979 6.98047 8.0625C7.00911 8.00521 7.05208 7.94076 7.10938 7.86914C7.15234 7.82617 7.23112 7.74023 7.3457 7.61133L7.43164 7.50391C7.48893 7.43229 7.54622 7.33919 7.60352 7.22461L7.625 7.16016C7.68229 7.0599 7.68229 6.93815 7.625 6.79492L6.98047 5.26953C6.92318 5.1263 6.85156 5.02604 6.76562 4.96875C6.72266 4.9401 6.6582 4.92578 6.57227 4.92578H6.12109C5.92057 4.92578 5.74154 5.01172 5.58398 5.18359L5.54102 5.22656C5.35482 5.41276 5.21159 5.59896 5.11133 5.78516C4.93945 6.11458 4.85352 6.48698 4.85352 6.90234C4.85352 7.31771 4.98242 7.77604 5.24023 8.27734C5.36914 8.53516 5.51953 8.77865 5.69141 9.00781L5.73438 9.07227C6.07812 9.55924 6.45052 10.0033 6.85156 10.4043C7.61068 11.1921 8.39844 11.7578 9.21484 12.1016C9.57292 12.2591 9.95247 12.4023 10.3535 12.5312C10.7546 12.6602 11.1914 12.6888 11.6641 12.6172C11.8932 12.5885 12.151 12.4811 12.4375 12.2949C12.7669 12.0801 12.9674 11.8652 13.0391 11.6504C13.125 11.4355 13.1751 11.235 13.1895 11.0488C13.2038 10.8483 13.1966 10.7266 13.168 10.6836C13.1393 10.6263 13.0462 10.5618 12.8887 10.4902L12.7812 10.4258Z" fill="#2A437A"/>
</svg>
